…
-   To spot covariation, visualise the relationship between the
    variables.

-   How you do it depends on the type of variables you have:

    -   A categorical variable and a continuous variable (today).
    -   Two categorical variables.
    -   Two continuous variables.

### A categorical and continuous variable.

``` r
diamonds %>% 
  select(price, cut)
#> # A tibble: 53,940 × 2
#>    price cut      
#>    <int> <ord>    
#>  1   326 Ideal    
#>  2   326 Premium  
#>  3   327 Good     
#>  4   334 Premium  
#>  5   335 Good     
#>  6   336 Very Good
#>  7   336 Very Good
#>  8   337 Very Good
#>  9   337 Fair     
#> 10   338 Very Good
#> # … with 53,930 more rows
```
…
