…
Data.

`?diamonds`:

-   `price`: price in US dollars.
-   `carat`: weight of the diamond (0.2–5.01).
-   `x, y, z`: length, width, depth in mm.

``` r
diamonds %>% 
  select(price, carat, x, y, z)
#> # A tibble: 53,940 × 5
#>    price carat     x     y     z
#>    <int> <dbl> <dbl> <dbl> <dbl>
#>  1   326  0.23  3.95  3.98  2.43
#>  2   326  0.21  3.89  3.84  2.31
#>  3   327  0.23  4.05  4.07  2.31
#>  4   334  0.29  4.2   4.23  2.63
#>  5   335  0.31  4.34  4.35  2.75
#>  6   336  0.24  3.94  3.96  2.48
#>  7   336  0.24  3.95  3.98  2.47
#>  8   337  0.26  4.07  4.11  2.53
#>  9   337  0.22  3.87  3.78  2.49
#> 10   338  0.23  4     4.05  2.39
#> # … with 53,930 more rows
```
…
